…
Combine all obtained data frames together in one data frame.

``` r
all = bind_rows(air_australia, air_poland, air_china, air_usa, air_norway)
```

Let’s look at data frame with combined records:

``` r
all
```

    ## # A tibble: 25 × 9
    ##    aqius aqicn city           state             country   temp_cels humidity wind_speed atm_pressure
    ##    <int> <int> <chr>          <chr>             <chr>         <int>    <int>      <dbl>        <int>
    ##  1     4     1 Mount Barker   South Australia   Australia        16       60       3.1          1015
    ##  2    24    27 West Footscray Victoria          Australia        20       47       8.75         1012
    ##  3     8     8 Scottsdale     Tasmania          Australia        18       62       7.37          999
    ##  4     4     1 Forrest        ACT               Australia        27       22      11.8          1010
    ##  5     5     6 Geraldton      Western Australia Australia        21       60       4.12         1017
    ##  6    37    13 Trzebnica      Lower Silesia     Poland            9       86       0.89         1024
    ##  7    17     6 Goldap         Warmia-Masuria    Poland           10       92       5.04         1019
    ##  8    53    20 Lublin         Lublin            Poland           11       85       3.6          1022
    ##  9    35    13 Wloszczowa     Swietokrzyskie    Poland            8       81       2.65         1025
    ## 10    39    24 Warsaw         Mazovia           Poland           11       78       1.54         1022
    ## # ℹ 15 more rows
…
  )) %>%
  mutate(aqicn_category = case_when(
    aqicn < 50 ~ "excellent",
    aqicn >= 50 & aqicn <= 100 ~ "good",
    aqicn > 100 ~ "polluted"
  )) %>%
  mutate(humidity_category = case_when(
    humidity <= 40 ~ 'low',
    humidity > 40 & humidity <= 60 ~ 'normal',
    humidity > 60 ~ 'high'
  ))
 all 
```

    ## # A tibble: 25 × 12
    ##    aqius aqicn city         state country temp_cels humidity wind_speed atm_pressure aqius_category aqicn_category humidity_category
    ##    <int> <int> <chr>        <chr> <chr>       <int>    <int>      <dbl>        <int> <chr>          <chr>          <chr>            
    ##  1     4     1 Mount Barker Sout… Austra…        16       60       3.1          1015 good           excellent      normal           
    ##  2    24    27 West Footsc… Vict… Austra…        20       47       8.75         1012 good           excellent      normal           
    ##  3     8     8 Scottsdale   Tasm… Austra…        18       62       7.37          999 good           excellent      high             
    ##  4     4     1 Forrest      ACT   Austra…        27       22      11.8          1010 good           excellent      low              
    ##  5     5     6 Geraldton    West… Austra…        21       60       4.12         1017 good           excellent      normal           
    ##  6    37    13 Trzebnica    Lowe… Poland          9       86       0.89         1024 good           excellent      high             
    ##  7    17     6 Goldap       Warm… Poland         10       92       5.04         1019 good           excellent      high             
    ##  8    53    20 Lublin       Lubl… Poland         11       85       3.6          1022 moderate       excellent      high             
    ##  9    35    13 Wloszczowa   Swie… Poland          8       81       2.65         1025 good           excellent      high             
    ## 10    39    24 Warsaw       Mazo… Poland         11       78       1.54         1022 good           excellent      high             
    ## # ℹ 15 more rows
…
Combine results in one data frame:

``` r
all_per_state = bind_rows(air_michigan, air_florida, air_minnesota, air_colorado, air_california)
all_per_state
```

    ## # A tibble: 25 × 9
    ##    aqius aqicn city                              state    country temp_cels humidity wind_speed atm_pressure
    ##    <int> <int> <chr>                             <chr>    <chr>       <int>    <int>      <dbl>        <int>
    ##  1    24     8 Harbor Springs                    Michigan USA            17       91       1.54         1024
    ##  2    48    17 Ypsilanti                         Michigan USA            15       92       0            1024
    ##  3    77    35 Milford                           Michigan USA            15       94       2.13         1024
    ##  4    53    19 Caro                              Michigan USA            15       82       0            1025
    ##  5    46    16 Saginaw                           Michigan USA            16       87       0            1021
    ##  6    31    11 Miami-fort Lauderdale-miami Beach Florida  USA            25       95       2.57         1015
    ##  7    18     6 Royal Palm Beach                  Florida  USA            25       93       2.57         1015
    ##  8    15     8 Delray Beach                      Florida  USA            25       95       1.54         1016
    ##  9     4     1 Avon Park                         Florida  USA            24       94       4.15         1016
    ## 10    21     7 Pace                              Florida  USA            24       71       2.57         1018
    ## # ℹ 15 more rows
…
  )) %>%
  mutate(aqicn_category = case_when(
    aqius < 50 ~ "excellent",
    aqius >= 50 & aqius <= 100 ~ "good",
    aqius > 100 ~ "polluted"
  )) %>%
  mutate(humidity_category = case_when(
    humidity <= 40 ~ 'low',
    humidity > 40 & humidity <= 60 ~ 'normal',
    humidity > 60 ~ 'high'
  ))
all_per_state 
```

    ## # A tibble: 25 × 12
    ##    aqius aqicn city         state country temp_cels humidity wind_speed atm_pressure aqius_category aqicn_category humidity_category
    ##    <int> <int> <chr>        <chr> <chr>       <int>    <int>      <dbl>        <int> <chr>          <chr>          <chr>            
    ##  1    24     8 Harbor Spri… Mich… USA            17       91       1.54         1024 good           excellent      high             
    ##  2    48    17 Ypsilanti    Mich… USA            15       92       0            1024 good           excellent      high             
    ##  3    77    35 Milford      Mich… USA            15       94       2.13         1024 moderate       good           high             
    ##  4    53    19 Caro         Mich… USA            15       82       0            1025 moderate       good           high             
    ##  5    46    16 Saginaw      Mich… USA            16       87       0            1021 good           excellent      high             
    ##  6    31    11 Miami-fort … Flor… USA            25       95       2.57         1015 good           excellent      high             
    ##  7    18     6 Royal Palm … Flor… USA            25       93       2.57         1015 good           excellent      high             
    ##  8    15     8 Delray Beach Flor… USA            25       95       1.54         1016 good           excellent      high             
    ##  9     4     1 Avon Park    Flor… USA            24       94       4.15         1016 good           excellent      high             
    ## 10    21     7 Pace         Flor… USA            24       71       2.57         1018 good           excellent      high             
    ## # ℹ 15 more rows
…
    ## # A tibble: 5 × 3
    ##   state      mean_aqius mean_aqicn
    ##   <chr>           <dbl>      <dbl>
    ## 1 California       20.6        7.2
    ## 2 Colorado         18.8        7.2
    ## 3 Florida          17.8        6.6
    ## 4 Michigan         49.6       19  
    ## 5 Minnesota        56.2       22.2

``` r
all_per_state
```

    ## # A tibble: 25 × 12
    ##    aqius aqicn city         state country temp_cels humidity wind_speed atm_pressure aqius_category aqicn_category humidity_category
    ##    <int> <int> <chr>        <chr> <chr>       <int>    <int>      <dbl>        <int> <chr>          <chr>          <chr>            
    ##  1    24     8 Harbor Spri… Mich… USA            17       91       1.54         1024 good           excellent      high             
    ##  2    48    17 Ypsilanti    Mich… USA            15       92       0            1024 good           excellent      high             
    ##  3    77    35 Milford      Mich… USA            15       94       2.13         1024 moderate       good           high             
    ##  4    53    19 Caro         Mich… USA            15       82       0            1025 moderate       good           high             
    ##  5    46    16 Saginaw      Mich… USA            16       87       0            1021 good           excellent      high             
    ##  6    31    11 Miami-fort … Flor… USA            25       95       2.57         1015 good           excellent      high             
    ##  7    18     6 Royal Palm … Flor… USA            25       93       2.57         1015 good           excellent      high             
    ##  8    15     8 Delray Beach Flor… USA            25       95       1.54         1016 good           excellent      high             
    ##  9     4     1 Avon Park    Flor… USA            24       94       4.15         1016 good           excellent      high             
    ## 10    21     7 Pace         Flor… USA            24       71       2.57         1018 good           excellent      high             
    ## # ℹ 15 more rows
…
